## Author: Galilman
## Interface: 50400
## Title: Scholomance Jandice Barov Helper
## Version: 0.62
## SavedVariables: SJBHDB

embeds.xml

Locales\Locales.xml

ScholomanceJandiceBarovHelper.lua

Colori.lua
Comunicazione.lua
funzioniVarie.lua
Modello.lua
